{
  "main": {
    "id": "c2e4c3aa9e4f517a",
    "type": "split",
    "children": [
      {
        "id": "ab7efe33a53d3219",
        "type": "tabs",
        "children": [
          {
            "id": "14588bebb68fd96f",
            "type": "leaf",
            "state": {
              "type": "canvas",
              "state": {
                "file": "Analysis/Analysis 4.2.canvas",
                "viewState": {
                  "x": -1182,
                  "y": 4340,
                  "zoom": -3.726038948740643
                }
              }
            }
          }
        ]
      }
    ],
    "direction": "vertical"
  },
  "left": {
    "id": "9f1388e362ed97c4",
    "type": "split",
    "children": [
      {
        "id": "596c013503c99ed9",
        "type": "tabs",
        "children": [
          {
            "id": "14519840a33488f6",
            "type": "leaf",
            "state": {
              "type": "file-explorer",
              "state": {
                "sortOrder": "alphabetical"
              }
            }
          },
          {
            "id": "a4f7223dbda241cf",
            "type": "leaf",
            "state": {
              "type": "search",
              "state": {
                "query": "",
                "matchingCase": false,
                "explainSearch": false,
                "collapseAll": false,
                "extraContext": false,
                "sortOrder": "alphabetical"
              }
            }
          },
          {
            "id": "46935e605793fe11",
            "type": "leaf",
            "state": {
              "type": "bookmarks",
              "state": {}
            }
          }
        ]
      }
    ],
    "direction": "horizontal",
    "width": 200
  },
  "right": {
    "id": "b782432c8c45ecf3",
    "type": "split",
    "children": [
      {
        "id": "bf72a7c08fd5e019",
        "type": "tabs",
        "children": [
          {
            "id": "7c5a51125088fbd8",
            "type": "leaf",
            "state": {
              "type": "backlink",
              "state": {
                "file": "Analysis/Analysis 4.2.canvas",
                "collapseAll": false,
                "extraContext": false,
                "sortOrder": "alphabetical",
                "showSearch": false,
                "searchQuery": "",
                "backlinkCollapsed": false,
                "unlinkedCollapsed": true
              }
            }
          },
          {
            "id": "752860b3d61bbcb2",
            "type": "leaf",
            "state": {
              "type": "outgoing-link",
              "state": {
                "file": "Analysis/Analysis 4.2.canvas",
                "linksCollapsed": false,
                "unlinkedCollapsed": true
              }
            }
          },
          {
            "id": "452067ce157fb94e",
            "type": "leaf",
            "state": {
              "type": "tag",
              "state": {
                "sortOrder": "frequency",
                "useHierarchy": true
              }
            }
          },
          {
            "id": "60823f419956d53e",
            "type": "leaf",
            "state": {
              "type": "outline",
              "state": {
                "file": "Analysis/Analysis 4.2.canvas"
              }
            }
          }
        ]
      }
    ],
    "direction": "horizontal",
    "width": 300,
    "collapsed": true
  },
  "left-ribbon": {
    "hiddenItems": {
      "switcher:Open quick switcher": false,
      "graph:Open graph view": false,
      "canvas:Create new canvas": false,
      "daily-notes:Open today's daily note": false,
      "templates:Insert template": false,
      "command-palette:Open command palette": false
    }
  },
  "active": "14588bebb68fd96f",
  "lastOpenFiles": [
    "Analysis/Analysis 4.2.canvas",
    "Development Platforms.md",
    "Configuration/Compile Definitions.md",
    "Configuration/Pre-sets.md",
    "README.md",
    "Platforms/Windows.md",
    "Diary.md",
    "Analysis/scons.md",
    "Analysis/cmake-orchestrator.md",
    "Analysis/cmake-orlac-template.md",
    "Analysis/cmake-ivan.md",
    "Analysis/cmake.md",
    "Compile Configuration.md",
    "People Involved.md",
    "Continuous Integration.md",
    "Github Actions.md",
    "Compile Process.md",
    "Diagrams",
    "Files",
    "Configuration/Compile Options.md",
    "Configuration",
    "Dependency Chain.md",
    "Diagrams/Dependency Chain.canvas",
    "Files/ci.yaml.md",
    "Configuration/Toolchains.md",
    "Option Scope.md",
    "Platforms/IOS.md",
    "Platforms/Android.md",
    "Analysis",
    "Files/filespec.gdextension.md",
    "Configuration/Link Options.md",
    "build/cmake-ivan.md~",
    "build/cmake.md~",
    "build/scons.md~",
    "build",
    "CI",
    "Platforms"
  ]
}